Study of the Diamonds tidyverse dataset with a focus on diamond quality
…
## [1] 3932.8

-6 & 7- Building the color & clarity groupings

We find that by grouping the dataset by color and clarity, we yield a total of 56 unique groups.

color_clarity_data <- data %>%
  group_by(color, clarity) %>% 
  summarise(count = n(), 
            average_price = mean(price))

color_clarity_data

## # A tibble: 56 x 4
## # Groups:   color [7]
##    color clarity count average_price
##    <ord> <ord>   <int>         <dbl>
##  1 D     I1         42         3863.
##  2 D     SI2      1370         3931.
##  3 D     SI1      2083         2976.
##  4 D     VS2      1697         2587.
##  5 D     VS1       705         3030.
##  6 D     VVS2      553         3351.
##  7 D     VVS1      252         2948.
##  8 D     IF         73         8307.
##  9 E     I1        102         3488.
## 10 E     SI2      1713         4174.
## #  with 46 more rows
…
-9- Counting of cut & color groups

color_cut_data <- data %>% 
  group_by(color, cut) %>% 
  summarise(count = n())

color_cut_data

## # A tibble: 35 x 3
## # Groups:   color [7]
##    color cut       count
##    <ord> <ord>     <int>
##  1 D     Fair        163
##  2 D     Good        662
##  3 D     Very Good  1513
##  4 D     Premium    1603
##  5 D     Ideal      2834
##  6 E     Fair        224
##  7 E     Good        933
##  8 E     Very Good  2400
##  9 E     Premium    2337
## 10 E     Ideal      3903
## #  with 25 more rows
…
